<svg xmlns="http://www.w3.org/2000/svg" viewBox="0 0 20 20">
<path fill="#ff1e1e" d="M 0,0 V 20 H 20 V 0 Z m 4.273438,3 9.103515,8.416 V 3.2461 h 2.349609 V 17 L 6.623047,8.584 v 7.7148 H 4.273438 Z" />
</svg>
