<svg xmlns="http://www.w3.org/2000/svg" viewBox="0 0 20 20">
<path fill="#2284f2" d="m 0,0 v 10.1152 c 0.96677452,0.064 1.7399567,0 1.984375,-0.3476 C 2.4507363,9.1205 2.4181614,8.3252 3,8 3.3132484,7.912 1.8377699,5.2056 3.4082031,4.3398 4.5279376,3.7801 5.474188,6.9184 5.7617188,7.2695 5.8905251,7.4266 6.5730725,7.4673 6.4921875,7.1094 6.4045265,6.7206 5.3047866,3.7115 6.6601562,3.207 8.8615177,2.3353 8.4661635,7.0554 8.5234375,7.1895 c 0.1217907,0.2857 7.6733855,0.5065 8.1308595,3.9003 0.264628,1.8678 -6.046922,4.2827 -6.6640626,4.7129 -0.616906,0.4301 -0.568673,1.1154 -0.328125,1.5411 C 9.9270591,17.7861 11.607423,19.2266 11.533203,20 H 20 V 0 Z m 14.988281,5.3477 c 0.0027,1e-4 0.0032,-8e-4 0.0059,0.01 0.198233,0.1444 -0.175412,2.9378 -0.392579,2.7753 -0.245036,-0.119 0.261146,-2.7292 0.386719,-2.7832 z m 1.863281,0.3554 c 0.0092,0 0.01498,-2e-4 0.02148,0.01 0.09304,0.092 -1.259392,2.8364 -1.476563,2.6739 -0.349877,-0.2591 1.168303,-2.6897 1.453125,-2.6797 z m -7.3652339,2.961 c -0.3598186,0 -0.6503906,0.3286 -0.6503906,0.7382 0,0.4097 0.290572,0.7461 0.6503906,0.7461 0.359821,0 0.6503909,-0.3364 0.6503909,-0.7461 0,-0.4096 -0.2905699,-0.7382 -0.6503909,-0.7382 z M 8.0253906,9.1113 c -0.6477621,0.4579 0.351809,3.0463 2.0019534,1.5332 -1.2964624,0.038 -1.7251737,-0.3384 -2.0019534,-1.5332 z m 3.4921874,3.125 c -0.718927,0.058 -2.6205074,1.2309 -2.5859374,1.3516 0.022911,0.1751 3.4626014,-1.0633 2.8125004,-1.2988 -0.04515,-0.041 -0.123863,-0.063 -0.226563,-0.053 z m 0.423828,0.7891 c -0.533744,0.041 -2.0243678,1.811 -1.818359,1.9355 -0.02876,0.047 2.527695,-1.3024 1.914062,-1.9121 -0.02626,-0.012 -0.06012,-0.033 -0.0957,-0.023 z" />
</svg>
