<svg width="96" height="96">
<path d="m 12,60 v 18 h 6 v 6 H 6 V 96 H 36 V 84 H 24 v -6 h 6 V 60 Z" />
<path id="lightning" d="m 60,66 v 18 h 6 6 v 12 h 6 V 84 78 H 66 V 66 Z" />
<path d="m 60,30 v 6 H 48 V 48 H 36 v 12 h 6 v 6 H 96 V 60 48 36 h -6 v -6 z" />
<path d="M 12,0 V 6 H 6 v 6 H 0 v 6 6 6 h 6 v 6 h 6 v 6 h 18 v -6 h 6 V 30 H 24 v -6 h -6 v -6 h 6 V 12 H 36 V 6 H 30 V 0 Z" />
</svg>
