<svg width="48" height="48">
<path d="M 30 0 L 30 3 L 42 3 L 42 0 L 30 0 z M 42 3 L 42 6 L 45 6 L 45 3 L 42 3 z M 45 6 L 45 18 L 48 18 L 48 6 L 45 6 z M 45 18 L 42 18 L 42 21 L 30 21 L 30 18 L 27 18 L 27 6 L 24 6 L 24 21 L 27 21 L 27 24 L 27 27 L 24 27 L 24 33 L 27 33 L 30 33 L 30 36 L 33 36 L 33 42 L 36 42 L 36 36 L 39 36 L 39 30 L 42 30 L 42 24 L 45 24 L 45 18 z M 33 42 L 30 42 L 30 45 L 33 45 L 33 42 z M 30 45 L 24 45 L 24 48 L 30 48 L 30 45 z M 24 45 L 24 42 L 21 42 L 21 36 L 24 36 L 24 33 L 21 33 L 15 33 L 15 30 L 9 30 L 9 27 L 3 27 L 3 24 L 0 24 L 0 33 L 3 33 L 3 36 L 9 36 L 9 39 L 15 39 L 15 42 L 18 42 L 18 45 L 24 45 z M 24 36 L 24 42 L 30 42 L 30 36 L 24 36 z M 27 6 L 30 6 L 30 3 L 27 3 L 27 6 z M 30 6 L 30 18 L 42 18 L 42 6 L 30 6 z " />
</svg>
